{
  "name": "wwn",
  "title": "Worlds Without Number",
  "description": "Play Worlds Without Number on Foundry VTT",
  "version": "0.9.6",
  "minimumCoreVersion": "0.8.9",
  "compatibleCoreVersion": "9",
  "templateVersion": 6.5,
  "author": "SobranDM",
  "esmodules": ["wwn.js"],
  "styles": ["wwn.css"],
  "packs": [
    {
      "name": "instinct",
      "label": "Instinct",
      "system": "wwn",
      "module": "wwn",
      "path": "packs/instinct.db",
      "entity": "RollTable"
    },
    {
      "name": "armor",
      "label": "Armor",
      "system": "wwn",
      "module": "wwn",
      "path": "packs/armor.db",
      "entity": "Item"
    },
    {
      "name": "weapons",
      "label": "Weapons",
      "system": "wwn",
      "module": "wwn",
      "path": "packs/weapons.db",
      "entity": "Item"
    },
    {
      "name": "arts",
      "label": "Arts",
      "system": "wwn",
      "module": "wwn",
      "path": "packs/arts.db",
      "entity": "Item"
    },
    {
      "name": "foci",
      "label": "Foci and Abilities",
      "system": "wwn",
      "module": "wwn",
      "path": "packs/foci.db",
      "entity": "Item"
    },
    {
      "name": "spells",
      "label": "Spells",
      "system": "wwn",
      "module": "wwn",
      "path": "packs/spells.db",
      "entity": "Item"
    },
    {
      "name": "adventuring-gear",
      "label": "Adventuring Gear",
      "system": "wwn",
      "module": "wwn",
      "path": "packs/adventuring-gear.db",
      "entity": "Item"
    },
    {
      "name": "magic-items",
      "label": "Magic Items",
      "system": "wwn",
      "module": "wwn",
      "path": "packs/magic-items.db",
      "entity": "Item"
    },
    {
      "name": "magic-tables",
      "label": "Magic Item Tables",
      "system": "wwn",
      "module": "wwn",
      "path": "packs/magic-tables.db",
      "entity": "RollTable"
    },
    {
      "name": "magic-item-masters",
      "label": "Magic Item Masters",
      "system": "wwn",
      "module": "wwn",
      "path": "packs/magic-item-masters.db",
      "entity": "RollTable"
    },
    {
      "name": "gm-subtables",
      "label": "GM Subtables",
      "system": "wwn",
      "module": "wwn",
      "path": "packs/gm-subtables.db",
      "entity": "RollTable"
    },
    {
      "name": "gm-master-tables",
      "label": "GM Master Tables",
      "system": "wwn",
      "module": "wwn",
      "path": "packs/gm-master-tables.db",
      "entity": "RollTable"
    },
    {
      "name": "creatures-of-a-far-age",
      "label": "Creatures of a Far Age",
      "system": "wwn",
      "module": "wwn",
      "path": "packs/creatures-of-a-far-age.db",
      "entity": "Actor"
    },
    {
      "name": "ose-monsters",
      "label": "OSE Monsters",
      "system": "wwn",
      "module": "wwn",
      "path": "packs/ose-monsters.db",
      "entity": "Actor"
    },
    {
      "name": "ose-spells",
      "label": "OSE Spells",
      "system": "wwn",
      "module": "wwn",
      "path": "packs/ose-spells.db",
      "entity": "Item"
    }
  ],
  "languages": [
    {
      "lang": "en",
      "name": "English",
      "path": "lang/en.json"
    }
  ],
  "gridDistance": 5,
  "gridUnits": "ft",
  "url": "https://gitlab.com/sobran/foundryvtt-wwn",
  "manifest": "https://gitlab.com/sobran/foundryvtt-wwn/-/raw/development/system.json",
  "download": "https://gitlab.com/sobran/foundryvtt-wwn/-/archive/v0.9.6/foundryvtt-wwn-v0.9.6.zip"
}